<svg xmlns="http://www.w3.org/2000/svg" width="118.786" height="96.687" viewBox="0 0 118.786 96.687">
  <metadata><?xpacket begin="﻿" id="W5M0MpCehiHzreSzNTczkc9d"?>
<x:xmpmeta xmlns:x="adobe:ns:meta/" x:xmptk="Adobe XMP Core 5.6-c138 79.159824, 2016/09/14-01:09:01        ">
   <rdf:RDF xmlns:rdf="http://www.w3.org/1999/02/22-rdf-syntax-ns#">
      <rdf:Description rdf:about=""/>
   </rdf:RDF>
</x:xmpmeta>
                                                                                                    
                                                                                                    
                                                                                                    
                                                                                                    
                                                                                                    
                                                                                                    
                                                                                                    
                                                                                                    
                                                                                                    
                                                                                                    
                                                                                                    
                                                                                                    
                                                                                                    
                                                                                                    
                                                                                                    
                                                                                                    
                                                                                                    
                                                                                                    
                                                                                                    
                                                                                                    
                           
<?xpacket end="w"?></metadata>
<defs>
    <style>
      .cls-1 {
        fill: #2962a4;
        fill-rule: evenodd;
      }
    </style>
  </defs>
  <path id="Фигура_3_копия_17" data-name="Фигура 3 (копия) 17" class="cls-1" d="M955.674,26.833a12.8,12.8,0,1,1-12.8,12.8A12.8,12.8,0,0,1,955.674,26.833Zm12.5,20.4a9.3,9.3,0,1,1-9.3,9.3A9.3,9.3,0,0,1,968.177,47.23Zm3.295,16.8a6.6,6.6,0,1,1-6.6,6.6A6.6,6.6,0,0,1,971.472,64.028Zm-1.2,11.578a4.62,4.62,0,1,1-4.62,4.62A4.62,4.62,0,0,1,970.269,75.606Zm-4.807,7.846a2.772,2.772,0,1,1-2.772,2.772A2.771,2.771,0,0,1,965.462,83.452Zm-3.6,3.508a1.663,1.663,0,1,1-1.664,1.663A1.663,1.663,0,0,1,961.862,86.96Zm53.738,29.793a12.8,12.8,0,1,1-5.27-17.318A12.8,12.8,0,0,1,1015.6,116.753Zm-23.883,1.43A9.3,9.3,0,1,1,987.89,105.6,9.3,9.3,0,0,1,991.717,118.183Zm-16.371-5a6.6,6.6,0,1,1-2.716-8.931A6.6,6.6,0,0,1,975.346,113.184Zm-9.648-6.513a4.62,4.62,0,1,1-1.9-6.25A4.622,4.622,0,0,1,965.7,106.671Zm-4.66-7.934a2.772,2.772,0,1,1-1.141-3.751A2.771,2.771,0,0,1,961.038,98.737Zm-1.4-4.828a1.663,1.663,0,1,1-.685-2.25A1.663,1.663,0,0,1,959.638,93.909Zm-60.7,18a12.8,12.8,0,1,1,16.02,8.428A12.8,12.8,0,0,1,898.937,111.906Zm15.77-17.99a9.3,9.3,0,1,1,11.64,6.123A9.3,9.3,0,0,1,914.707,93.916Zm15.064-8.13a6.6,6.6,0,1,1,8.26,4.345A6.6,6.6,0,0,1,929.771,85.787ZM941.185,83.5a4.62,4.62,0,1,1,5.782,3.041A4.62,4.62,0,0,1,941.185,83.5Zm8.919,2.263a2.772,2.772,0,1,1,3.469,1.826A2.773,2.773,0,0,1,950.1,85.765Zm4.417,2.4a1.663,1.663,0,1,1,2.082,1.095A1.663,1.663,0,0,1,954.521,88.163Z" transform="translate(-898.344 -26.844)"/>
</svg>
